…
``` r
apt_buildings
```

    ## # A tibble: 3,455 × 37
    ##       id air_conditioning amenities             balconies barrier_free_accessi…¹
    ##    <dbl> <chr>            <chr>                 <chr>     <chr>                 
    ##  1 10359 NONE             Outdoor rec faciliti… YES       YES                   
    ##  2 10360 NONE             Outdoor pool          YES       NO                    
    ##  3 10361 NONE             <NA>                  YES       NO                    
    ##  4 10362 NONE             <NA>                  YES       YES                   
    ##  5 10363 NONE             <NA>                  NO        NO                    
    ##  6 10364 NONE             <NA>                  NO        NO                    
    ##  7 10365 NONE             <NA>                  NO        YES                   
    ##  8 10366 CENTRAL AIR      Indoor pool , Indoor… YES       NO                    
    ##  9 10367 NONE             <NA>                  YES       YES                   
    ## 10 10368 NONE             Indoor recreation ro… YES       YES                   
    ## # ℹ 3,445 more rows
    ## # ℹ abbreviated name: ¹​barrier_free_accessibilty_entr
    ## # ℹ 32 more variables: bike_parking <chr>, exterior_fire_escape <chr>,
    ## #   fire_alarm <chr>, garbage_chutes <chr>, heating_type <chr>, intercom <chr>,
    ## #   laundry_room <chr>, locker_or_storage_room <chr>, no_of_elevators <dbl>,
    ## #   parking_type <chr>, pets_allowed <chr>, prop_management_company_name <chr>,
    ## #   property_type <chr>, rsn <dbl>, separate_gas_meters <chr>, …
…
``` r
vancouver_trees
```

    ## # A tibble: 146,611 × 20
    ##    tree_id civic_number std_street    genus_name species_name cultivar_name  
    ##      <dbl>        <dbl> <chr>         <chr>      <chr>        <chr>          
    ##  1  149556          494 W 58TH AV     ULMUS      AMERICANA    BRANDON        
    ##  2  149563          450 W 58TH AV     ZELKOVA    SERRATA      <NA>           
    ##  3  149579         4994 WINDSOR ST    STYRAX     JAPONICA     <NA>           
    ##  4  149590          858 E 39TH AV     FRAXINUS   AMERICANA    AUTUMN APPLAUSE
    ##  5  149604         5032 WINDSOR ST    ACER       CAMPESTRE    <NA>           
    ##  6  149616          585 W 61ST AV     PYRUS      CALLERYANA   CHANTICLEER    
    ##  7  149617         4909 SHERBROOKE ST ACER       PLATANOIDES  COLUMNARE      
    ##  8  149618         4925 SHERBROOKE ST ACER       PLATANOIDES  COLUMNARE      
    ##  9  149619         4969 SHERBROOKE ST ACER       PLATANOIDES  COLUMNARE      
    ## 10  149625          720 E 39TH AV     FRAXINUS   AMERICANA    AUTUMN APPLAUSE
    ## # ℹ 146,601 more rows
    ## # ℹ 14 more variables: common_name <chr>, assigned <chr>, root_barrier <chr>,
    ## #   plant_area <chr>, on_street_block <dbl>, on_street <chr>,
    ## #   neighbourhood_name <chr>, street_side_name <chr>, height_range_id <dbl>,
    ## #   diameter <dbl>, curb <chr>, date_planted <date>, longitude <dbl>,
    ## #   latitude <dbl>
…
# group the tibble by genus_name
treeSummary <- treeSubset %>%
  group_by(species_name) %>%
  # add some new variables
  summarize(
    numberTrees = n(),
    assignedCount = sum(assigned == "Y"),
    unassignedCount = sum(assigned == "N")
  )
treeSummary
```

    ## # A tibble: 283 × 4
    ##    species_name   numberTrees assignedCount unassignedCount
    ##    <chr>                <int>         <int>           <int>
    ##  1 ABIES                  139             6             133
    ##  2 ACERIFOLIA   X        1724           270            1454
    ##  3 ACUMINATA                7             0               7
    ##  4 ACUTISSIMA             526            90             436
    ##  5 AILANTHIFOLIA            5             1               4
    ##  6 ALBA                    26             1              25
    ##  7 ALBA-SINENSIS            3             0               3
    ##  8 ALNIFOLIA              274            37             237
    ##  9 ALPINUM                  1             0               1
    ## 10 ALTISSIMA                4             0               4
    ## # ℹ 273 more rows

``` r
# arrange the tibble by number of trees in descending order
treeSummary <- treeSummary %>%
  arrange(desc(numberTrees))
treeSummary
```

    ## # A tibble: 283 × 4
    ##    species_name numberTrees assignedCount unassignedCount
    ##    <chr>              <int>         <int>           <int>
    ##  1 SERRULATA          13357           776           12581
    ##  2 CERASIFERA         12031           538           11493
    ##  3 PLATANOIDES        11963          1225           10738
    ##  4 RUBRUM              8467          1080            7387
    ##  5 AMERICANA           5515           631            4884
    ##  6 SYLVATICA           5285           718            4567
    ##  7 BETULUS             5195           763            4432
    ##  8 EUCHLORA   X        4427           579            3848
    ##  9 FREEMANI   X        4164           506            3658
    ## 10 CAMPESTRE           3477           353            3124
    ## # ℹ 273 more rows
…
